id,name_en,name_fr,name_ar,name_ur,asset_url_en,asset_url_fr,asset_url_ar,asset_url_ur,created_at,updated_at
1,Cleaning,0XuKujoq,On49dySf,nI36CNli,http://18.219.132.181/images/cleaning/cleaning_icon.png,http://18.219.132.181/images/cleaning/cleaning_icon.png,http://18.219.132.181/images/cleaning/cleaning_icon.png,http://18.219.132.181/images/cleaning/cleaning_icon.png,2018-11-26 15:16:51 +0000,2018-11-26 15:16:51 +0000
2,Electrical Work,BPAL89H1,4aZrLb3W,6QW9E2I2,http://18.219.132.181/images/electrical_work.png,http://18.219.132.181/images/electrical_work.png,http://18.219.132.181/images/electrical_work.png,http://18.219.132.181/images/electrical_work.png,2018-11-26 15:16:51 +0000,2018-11-26 15:16:51 +0000
3,Interior Decoration,zqEzdtXg,w9skS0CO,yQih2DPj,http://18.219.132.181/images/interior_decoration/interior_icon.png,https://lorempixel.com/20/20/?12308,https://lorempixel.com/20/20/?79521,https://lorempixel.com/20/20/?22038,2018-11-26 15:16:51 +0000,2018-11-26 15:16:51 +0000
4,Plumbing,9OeR2hDY,XhgI0WbG,CGsPWpPc,http://18.219.132.181/images/plumbing/water_tank.png,https://lorempixel.com/20/20/?51455,https://lorempixel.com/20/20/?30124,https://lorempixel.com/20/20/?25813,2018-11-26 15:16:51 +0000,2018-11-26 15:16:51 +0000
5,Wood Work,TXcbjPFB,RkCxBK52,wkeKfMB4,http://18.219.132.181/images/wood_work/wood_box.png,https://lorempixel.com/20/20/?61036,https://lorempixel.com/20/20/?88892,https://lorempixel.com/20/20/?56145,2018-11-26 15:16:51 +0000,2018-11-26 15:16:51 +0000
